{
  "models": {
    "took": 245,
    "total": 1,
    "data": [
      {
        "slugifiedPrimary": "timeseries-model",
        "headers": {
          "took": 182,
          "total": 7,
          "data": [
            {
              "slugifiedPrimary": "cache-control",
              "condition": "OPTIONAL",
              "name": "Cache-Control",
              "description": "",
              "links": {
                "self": {
                  "href": "https://market.mashape.com/api/middleware/accounts/53fc04cde4b04b390f9b49a6/apis/53fc04cfe4b04b390f9b49a7/versions/53fc04cfe4b0954850fd0974/models/54887c4de4b019c432cf2d4e/headers/54887c4de4b097f2434b21dd"
                },
                "model": {
                  "parent": true,
                  "href": "https://market.mashape.com/api/middleware/accounts/53fc04cde4b04b390f9b49a6/apis/53fc04cfe4b04b390f9b49a7/versions/53fc04cfe4b0954850fd0974/models/54887c4de4b019c432cf2d4e"
                }
              },
              "id": "54887c4de4b097f2434b21dd",
              "type": "STRING",
              "creationDate": 1418230861788,
              "value": "no-cache",
              "status": "ACTIVE"
            },
            {
              "slugifiedPrimary": "connection",
              "condition": "OPTIONAL",
              "name": "Connection",
              "description": "",
              "links": {
                "self": {
                  "href": "https://market.mashape.com/api/middleware/accounts/53fc04cde4b04b390f9b49a6/apis/53fc04cfe4b04b390f9b49a7/versions/53fc04cfe4b0954850fd0974/models/54887c4de4b019c432cf2d4e/headers/54887c4de4b062873af3d9d9"
                },
                "model": {
                  "parent": true,
                  "href": "https://market.mashape.com/api/middleware/accounts/53fc04cde4b04b390f9b49a6/apis/53fc04cfe4b04b390f9b49a7/versions/53fc04cfe4b0954850fd0974/models/54887c4de4b019c432cf2d4e"
                }
              },
              "id": "54887c4de4b062873af3d9d9",
              "type": "STRING",
              "creationDate": 1418230861854,
              "value": "keep-alive",
              "status": "ACTIVE"
            },
            {
              "slugifiedPrimary": "content-length",
              "condition": "OPTIONAL",
              "name": "Content-Length",
              "description": "",
              "links": {
                "self": {
                  "href": "https://market.mashape.com/api/middleware/accounts/53fc04cde4b04b390f9b49a6/apis/53fc04cfe4b04b390f9b49a7/versions/53fc04cfe4b0954850fd0974/models/54887c4de4b019c432cf2d4e/headers/54887c4de4b04991a2b462ec"
                },
                "model": {
                  "parent": true,
                  "href": "https://market.mashape.com/api/middleware/accounts/53fc04cde4b04b390f9b49a6/apis/53fc04cfe4b04b390f9b49a7/versions/53fc04cfe4b0954850fd0974/models/54887c4de4b019c432cf2d4e"
                }
              },
              "id": "54887c4de4b04991a2b462ec",
              "type": "STRING",
              "creationDate": 1418230861820,
              "value": "907",
              "status": "ACTIVE"
            },
            {
              "slugifiedPrimary": "content-type",
              "condition": "OPTIONAL",
              "name": "Content-Type",
              "description": "",
              "links": {
                "self": {
                  "href": "https://market.mashape.com/api/middleware/accounts/53fc04cde4b04b390f9b49a6/apis/53fc04cfe4b04b390f9b49a7/versions/53fc04cfe4b0954850fd0974/models/54887c4de4b019c432cf2d4e/headers/54887c4de4b019c432cf2d4f"
                },
                "model": {
                  "parent": true,
                  "href": "https://market.mashape.com/api/middleware/accounts/53fc04cde4b04b390f9b49a6/apis/53fc04cfe4b04b390f9b49a7/versions/53fc04cfe4b0954850fd0974/models/54887c4de4b019c432cf2d4e"
                }
              },
              "id": "54887c4de4b019c432cf2d4f",
              "type": "STRING",
              "creationDate": 1418230861806,
              "value": "application/json",
              "status": "ACTIVE"
            },
            {
              "slugifiedPrimary": "date",
              "condition": "OPTIONAL",
              "name": "Date",
              "description": "",
              "links": {
                "self": {
                  "href": "https://market.mashape.com/api/middleware/accounts/53fc04cde4b04b390f9b49a6/apis/53fc04cfe4b04b390f9b49a7/versions/53fc04cfe4b0954850fd0974/models/54887c4de4b019c432cf2d4e/headers/54887c4de4b062873af3d9d8"
                },
                "model": {
                  "parent": true,
                  "href": "https://market.mashape.com/api/middleware/accounts/53fc04cde4b04b390f9b49a6/apis/53fc04cfe4b04b390f9b49a7/versions/53fc04cfe4b0954850fd0974/models/54887c4de4b019c432cf2d4e"
                }
              },
              "id": "54887c4de4b062873af3d9d8",
              "type": "STRING",
              "creationDate": 1418230861796,
              "value": "Wed, 10 Dec 2014 17:01:00 GMT",
              "status": "ACTIVE"
            },
            {
              "slugifiedPrimary": "server",
              "condition": "OPTIONAL",
              "name": "Server",
              "description": "",
              "links": {
                "self": {
                  "href": "https://market.mashape.com/api/middleware/accounts/53fc04cde4b04b390f9b49a6/apis/53fc04cfe4b04b390f9b49a7/versions/53fc04cfe4b0954850fd0974/models/54887c4de4b019c432cf2d4e/headers/54887c4de4b0da1d8c6f6800"
                },
                "model": {
                  "parent": true,
                  "href": "https://market.mashape.com/api/middleware/accounts/53fc04cde4b04b390f9b49a6/apis/53fc04cfe4b04b390f9b49a7/versions/53fc04cfe4b0954850fd0974/models/54887c4de4b019c432cf2d4e"
                }
              },
              "id": "54887c4de4b0da1d8c6f6800",
              "type": "STRING",
              "creationDate": 1418230861789,
              "value": "Mashape/5.0.5",
              "status": "ACTIVE"
            },
            {
              "slugifiedPrimary": "vary",
              "condition": "OPTIONAL",
              "name": "Vary",
              "description": "",
              "links": {
                "self": {
                  "href": "https://market.mashape.com/api/middleware/accounts/53fc04cde4b04b390f9b49a6/apis/53fc04cfe4b04b390f9b49a7/versions/53fc04cfe4b0954850fd0974/models/54887c4de4b019c432cf2d4e/headers/54887c4de4b019c4a9f52a0b"
                },
                "model": {
                  "parent": true,
                  "href": "https://market.mashape.com/api/middleware/accounts/53fc04cde4b04b390f9b49a6/apis/53fc04cfe4b04b390f9b49a7/versions/53fc04cfe4b0954850fd0974/models/54887c4de4b019c432cf2d4e"
                }
              },
              "id": "54887c4de4b019c4a9f52a0b",
              "type": "STRING",
              "creationDate": 1418230861950,
              "value": "Accept-Encoding, Accept",
              "status": "ACTIVE"
            }
          ]
        },
        "name": "Timeseries model",
        "format": "JSON",
        "description": "",
        "links": {
          "headers": {
            "href": "https://market.mashape.com/api/middleware/accounts/53fc04cde4b04b390f9b49a6/apis/53fc04cfe4b04b390f9b49a7/versions/53fc04cfe4b0954850fd0974/models/54887c4de4b019c432cf2d4e/headers/"
          },
          "self": {
            "href": "https://market.mashape.com/api/middleware/accounts/53fc04cde4b04b390f9b49a6/apis/53fc04cfe4b04b390f9b49a7/versions/53fc04cfe4b0954850fd0974/models/54887c4de4b019c432cf2d4e"
          },
          "version": {
            "parent": true,
            "href": "https://market.mashape.com/api/middleware/accounts/53fc04cde4b04b390f9b49a6/apis/53fc04cfe4b04b390f9b49a7/versions/53fc04cfe4b0954850fd0974"
          }
        },
        "id": "54887c4de4b019c432cf2d4e",
        "body": "{\"meta\": {\"limit\": 10, \"next\": \"?format=json&limit=10&offset=2110\", \"offset\": 2100, \"previous\": \"?format=json&limit=10&offset=2090\", \"total_count\": 2287}, \"objects\": [{\"date\": \"2014-06-24T00:00:00\", \"happiness\": \"5.988\", \"lang\": \"english\"}, {\"date\": \"2014-06-25T00:00:00\", \"happiness\": \"5.998\", \"lang\": \"english\"}, {\"date\": \"2014-06-26T00:00:00\", \"happiness\": \"6.009\", \"lang\": \"english\"}, {\"date\": \"2014-06-27T00:00:00\", \"happiness\": \"6.026\", \"lang\": \"english\"}, {\"date\": \"2014-06-28T00:00:00\", \"happiness\": \"6.013\", \"lang\": \"english\"}, {\"date\": \"2014-06-29T00:00:00\", \"happiness\": \"5.993\", \"lang\": \"english\"}, {\"date\": \"2014-06-30T00:00:00\", \"happiness\": \"6.009\", \"lang\": \"english\"}, {\"date\": \"2014-07-01T00:00:00\", \"happiness\": \"6.017\", \"lang\": \"english\"}, {\"date\": \"2014-07-02T00:00:00\", \"happiness\": \"6.005\", \"lang\": \"english\"}, {\"date\": \"2014-07-03T00:00:00\", \"happiness\": \"6.014\", \"lang\": \"english\"}]}",
        "creationDate": 1418230861212,
        "status": "ACTIVE"
      }
    ]
  },
  "website": "http://hedonometer.org",
  "updateDate": "Tue Aug 26 15:58:43 UTC 2014",
  "endpoints": {
    "took": 155,
    "total": 1,
    "data": [
      {
        "headers": {
          "took": 7,
          "total": 0,
          "data": []
        },
        "routeparameters": {
          "took": 88,
          "total": 3,
          "data": [
            {
              "slugifiedPrimary": "format",
              "condition": "REQUIRED",
              "name": "format",
              "querystring": true,
              "description": "",
              "links": {
                "endpoint": {
                  "parent": true,
                  "href": "https://market.mashape.com/api/middleware/accounts/53fc04cde4b04b390f9b49a6/apis/53fc04cfe4b04b390f9b49a7/versions/53fc04cfe4b0954850fd0974/endpoints/53fcab31e4b01e888448874b"
                },
                "self": {
                  "href": "https://market.mashape.com/api/middleware/accounts/53fc04cde4b04b390f9b49a6/apis/53fc04cfe4b04b390f9b49a7/versions/53fc04cfe4b0954850fd0974/endpoints/53fcab31e4b01e888448874b/routeparameters/53fcab64e4b04b390f9b4aa7"
                }
              },
              "id": "53fcab64e4b04b390f9b4aa7",
              "type": "STRING",
              "creationDate": 1409067876783,
              "value": "json",
              "status": "ACTIVE"
            },
            {
              "slugifiedPrimary": "limit",
              "condition": "OPTIONAL",
              "name": "limit",
              "querystring": true,
              "description": "",
              "links": {
                "endpoint": {
                  "parent": true,
                  "href": "https://market.mashape.com/api/middleware/accounts/53fc04cde4b04b390f9b49a6/apis/53fc04cfe4b04b390f9b49a7/versions/53fc04cfe4b0954850fd0974/endpoints/53fcab31e4b01e888448874b"
                },
                "self": {
                  "href": "https://market.mashape.com/api/middleware/accounts/53fc04cde4b04b390f9b49a6/apis/53fc04cfe4b04b390f9b49a7/versions/53fc04cfe4b0954850fd0974/endpoints/53fcab31e4b01e888448874b/routeparameters/53fcab86e4b0bf456e67bffa"
                }
              },
              "id": "53fcab86e4b0bf456e67bffa",
              "type": "STRING",
              "creationDate": 1409067910415,
              "value": "10",
              "status": "ACTIVE"
            },
            {
              "slugifiedPrimary": "offset",
              "condition": "OPTIONAL",
              "name": "offset",
              "querystring": true,
              "description": "",
              "links": {
                "endpoint": {
                  "parent": true,
                  "href": "https://market.mashape.com/api/middleware/accounts/53fc04cde4b04b390f9b49a6/apis/53fc04cfe4b04b390f9b49a7/versions/53fc04cfe4b0954850fd0974/endpoints/53fcab31e4b01e888448874b"
                },
                "self": {
                  "href": "https://market.mashape.com/api/middleware/accounts/53fc04cde4b04b390f9b49a6/apis/53fc04cfe4b04b390f9b49a7/versions/53fc04cfe4b0954850fd0974/endpoints/53fcab31e4b01e888448874b/routeparameters/53fcab97e4b012f372088822"
                }
              },
              "id": "53fcab97e4b012f372088822",
              "type": "STRING",
              "creationDate": 1409067927752,
              "value": "2100",
              "status": "ACTIVE"
            }
          ]
        },
        "updateDate": 1418230861502,
        "code": 200,
        "method": "GET",
        "description": "Call the happiness timeseries",
        "creationDate": 1409067825834,
        "slugifiedPrimary": "timeseries",
        "routeregex": "/timeseries/",
        "route": "/timeseries/",
        "response": {
          "slugifiedPrimary": "timeseries-model",
          "headers": {
            "took": 57,
            "total": 7,
            "data": [
              {
                "slugifiedPrimary": "cache-control",
                "condition": "OPTIONAL",
                "name": "Cache-Control",
                "description": "",
                "links": {
                  "self": {
                    "href": "https://market.mashape.com/api/middleware/accounts/53fc04cde4b04b390f9b49a6/apis/53fc04cfe4b04b390f9b49a7/versions/53fc04cfe4b0954850fd0974/models/54887c4de4b019c432cf2d4e/headers/54887c4de4b097f2434b21dd"
                  },
                  "model": {
                    "parent": true,
                    "href": "https://market.mashape.com/api/middleware/accounts/53fc04cde4b04b390f9b49a6/apis/53fc04cfe4b04b390f9b49a7/versions/53fc04cfe4b0954850fd0974/models/54887c4de4b019c432cf2d4e"
                  }
                },
                "id": "54887c4de4b097f2434b21dd",
                "type": "STRING",
                "creationDate": 1418230861788,
                "value": "no-cache",
                "status": "ACTIVE"
              },
              {
                "slugifiedPrimary": "connection",
                "condition": "OPTIONAL",
                "name": "Connection",
                "description": "",
                "links": {
                  "self": {
                    "href": "https://market.mashape.com/api/middleware/accounts/53fc04cde4b04b390f9b49a6/apis/53fc04cfe4b04b390f9b49a7/versions/53fc04cfe4b0954850fd0974/models/54887c4de4b019c432cf2d4e/headers/54887c4de4b062873af3d9d9"
                  },
                  "model": {
                    "parent": true,
                    "href": "https://market.mashape.com/api/middleware/accounts/53fc04cde4b04b390f9b49a6/apis/53fc04cfe4b04b390f9b49a7/versions/53fc04cfe4b0954850fd0974/models/54887c4de4b019c432cf2d4e"
                  }
                },
                "id": "54887c4de4b062873af3d9d9",
                "type": "STRING",
                "creationDate": 1418230861854,
                "value": "keep-alive",
                "status": "ACTIVE"
              },
              {
                "slugifiedPrimary": "content-length",
                "condition": "OPTIONAL",
                "name": "Content-Length",
                "description": "",
                "links": {
                  "self": {
                    "href": "https://market.mashape.com/api/middleware/accounts/53fc04cde4b04b390f9b49a6/apis/53fc04cfe4b04b390f9b49a7/versions/53fc04cfe4b0954850fd0974/models/54887c4de4b019c432cf2d4e/headers/54887c4de4b04991a2b462ec"
                  },
                  "model": {
                    "parent": true,
                    "href": "https://market.mashape.com/api/middleware/accounts/53fc04cde4b04b390f9b49a6/apis/53fc04cfe4b04b390f9b49a7/versions/53fc04cfe4b0954850fd0974/models/54887c4de4b019c432cf2d4e"
                  }
                },
                "id": "54887c4de4b04991a2b462ec",
                "type": "STRING",
                "creationDate": 1418230861820,
                "value": "907",
                "status": "ACTIVE"
              },
              {
                "slugifiedPrimary": "content-type",
                "condition": "OPTIONAL",
                "name": "Content-Type",
                "description": "",
                "links": {
                  "self": {
                    "href": "https://market.mashape.com/api/middleware/accounts/53fc04cde4b04b390f9b49a6/apis/53fc04cfe4b04b390f9b49a7/versions/53fc04cfe4b0954850fd0974/models/54887c4de4b019c432cf2d4e/headers/54887c4de4b019c432cf2d4f"
                  },
                  "model": {
                    "parent": true,
                    "href": "https://market.mashape.com/api/middleware/accounts/53fc04cde4b04b390f9b49a6/apis/53fc04cfe4b04b390f9b49a7/versions/53fc04cfe4b0954850fd0974/models/54887c4de4b019c432cf2d4e"
                  }
                },
                "id": "54887c4de4b019c432cf2d4f",
                "type": "STRING",
                "creationDate": 1418230861806,
                "value": "application/json",
                "status": "ACTIVE"
              },
              {
                "slugifiedPrimary": "date",
                "condition": "OPTIONAL",
                "name": "Date",
                "description": "",
                "links": {
                  "self": {
                    "href": "https://market.mashape.com/api/middleware/accounts/53fc04cde4b04b390f9b49a6/apis/53fc04cfe4b04b390f9b49a7/versions/53fc04cfe4b0954850fd0974/models/54887c4de4b019c432cf2d4e/headers/54887c4de4b062873af3d9d8"
                  },
                  "model": {
                    "parent": true,
                    "href": "https://market.mashape.com/api/middleware/accounts/53fc04cde4b04b390f9b49a6/apis/53fc04cfe4b04b390f9b49a7/versions/53fc04cfe4b0954850fd0974/models/54887c4de4b019c432cf2d4e"
                  }
                },
                "id": "54887c4de4b062873af3d9d8",
                "type": "STRING",
                "creationDate": 1418230861796,
                "value": "Wed, 10 Dec 2014 17:01:00 GMT",
                "status": "ACTIVE"
              },
              {
                "slugifiedPrimary": "server",
                "condition": "OPTIONAL",
                "name": "Server",
                "description": "",
                "links": {
                  "self": {
                    "href": "https://market.mashape.com/api/middleware/accounts/53fc04cde4b04b390f9b49a6/apis/53fc04cfe4b04b390f9b49a7/versions/53fc04cfe4b0954850fd0974/models/54887c4de4b019c432cf2d4e/headers/54887c4de4b0da1d8c6f6800"
                  },
                  "model": {
                    "parent": true,
                    "href": "https://market.mashape.com/api/middleware/accounts/53fc04cde4b04b390f9b49a6/apis/53fc04cfe4b04b390f9b49a7/versions/53fc04cfe4b0954850fd0974/models/54887c4de4b019c432cf2d4e"
                  }
                },
                "id": "54887c4de4b0da1d8c6f6800",
                "type": "STRING",
                "creationDate": 1418230861789,
                "value": "Mashape/5.0.5",
                "status": "ACTIVE"
              },
              {
                "slugifiedPrimary": "vary",
                "condition": "OPTIONAL",
                "name": "Vary",
                "description": "",
                "links": {
                  "self": {
                    "href": "https://market.mashape.com/api/middleware/accounts/53fc04cde4b04b390f9b49a6/apis/53fc04cfe4b04b390f9b49a7/versions/53fc04cfe4b0954850fd0974/models/54887c4de4b019c432cf2d4e/headers/54887c4de4b019c4a9f52a0b"
                  },
                  "model": {
                    "parent": true,
                    "href": "https://market.mashape.com/api/middleware/accounts/53fc04cde4b04b390f9b49a6/apis/53fc04cfe4b04b390f9b49a7/versions/53fc04cfe4b0954850fd0974/models/54887c4de4b019c432cf2d4e"
                  }
                },
                "id": "54887c4de4b019c4a9f52a0b",
                "type": "STRING",
                "creationDate": 1418230861950,
                "value": "Accept-Encoding, Accept",
                "status": "ACTIVE"
              }
            ]
          },
          "took": 91,
          "name": "Timeseries model",
          "format": "JSON",
          "description": "",
          "links": {
            "headers": {
              "href": "https://market.mashape.com/api/middleware/accounts/53fc04cde4b04b390f9b49a6/apis/53fc04cfe4b04b390f9b49a7/versions/53fc04cfe4b0954850fd0974/models/54887c4de4b019c432cf2d4e/headers/"
            },
            "self": {
              "href": "https://market.mashape.com/api/middleware/accounts/53fc04cde4b04b390f9b49a6/apis/53fc04cfe4b04b390f9b49a7/versions/53fc04cfe4b0954850fd0974/models/54887c4de4b019c432cf2d4e"
            },
            "version": {
              "parent": true,
              "href": "https://market.mashape.com/api/middleware/accounts/53fc04cde4b04b390f9b49a6/apis/53fc04cfe4b04b390f9b49a7/versions/53fc04cfe4b0954850fd0974"
            }
          },
          "id": "54887c4de4b019c432cf2d4e",
          "body": "{\"meta\": {\"limit\": 10, \"next\": \"?format=json&limit=10&offset=2110\", \"offset\": 2100, \"previous\": \"?format=json&limit=10&offset=2090\", \"total_count\": 2287}, \"objects\": [{\"date\": \"2014-06-24T00:00:00\", \"happiness\": \"5.988\", \"lang\": \"english\"}, {\"date\": \"2014-06-25T00:00:00\", \"happiness\": \"5.998\", \"lang\": \"english\"}, {\"date\": \"2014-06-26T00:00:00\", \"happiness\": \"6.009\", \"lang\": \"english\"}, {\"date\": \"2014-06-27T00:00:00\", \"happiness\": \"6.026\", \"lang\": \"english\"}, {\"date\": \"2014-06-28T00:00:00\", \"happiness\": \"6.013\", \"lang\": \"english\"}, {\"date\": \"2014-06-29T00:00:00\", \"happiness\": \"5.993\", \"lang\": \"english\"}, {\"date\": \"2014-06-30T00:00:00\", \"happiness\": \"6.009\", \"lang\": \"english\"}, {\"date\": \"2014-07-01T00:00:00\", \"happiness\": \"6.017\", \"lang\": \"english\"}, {\"date\": \"2014-07-02T00:00:00\", \"happiness\": \"6.005\", \"lang\": \"english\"}, {\"date\": \"2014-07-03T00:00:00\", \"happiness\": \"6.014\", \"lang\": \"english\"}]}",
          "creationDate": 1418230861212,
          "status": "ACTIVE"
        },
        "name": "Timeseries",
        "routeindex": 0,
        "links": {
          "headers": {
            "href": "https://market.mashape.com/api/middleware/accounts/53fc04cde4b04b390f9b49a6/apis/53fc04cfe4b04b390f9b49a7/versions/53fc04cfe4b0954850fd0974/endpoints/53fcab31e4b01e888448874b/headers/"
          },
          "routeparameters": {
            "href": "https://market.mashape.com/api/middleware/accounts/53fc04cde4b04b390f9b49a6/apis/53fc04cfe4b04b390f9b49a7/versions/53fc04cfe4b0954850fd0974/endpoints/53fcab31e4b01e888448874b/routeparameters/"
          },
          "response": {
            "href": "https://market.mashape.com/api/middleware/accounts/53fc04cde4b04b390f9b49a6/apis/53fc04cfe4b04b390f9b49a7/versions/53fc04cfe4b0954850fd0974/models/54887c4de4b019c432cf2d4e"
          },
          "self": {
            "href": "https://market.mashape.com/api/middleware/accounts/53fc04cde4b04b390f9b49a6/apis/53fc04cfe4b04b390f9b49a7/versions/53fc04cfe4b0954850fd0974/endpoints/53fcab31e4b01e888448874b"
          },
          "version": {
            "parent": true,
            "href": "https://market.mashape.com/api/middleware/accounts/53fc04cde4b04b390f9b49a6/apis/53fc04cfe4b04b390f9b49a7/versions/53fc04cfe4b0954850fd0974"
          },
          "parameters": {
            "href": "https://market.mashape.com/api/middleware/accounts/53fc04cde4b04b390f9b49a6/apis/53fc04cfe4b04b390f9b49a7/versions/53fc04cfe4b0954850fd0974/endpoints/53fcab31e4b01e888448874b/parameters/"
          }
        },
        "id": "53fcab31e4b01e888448874b",
        "parameters": {
          "took": 21,
          "total": 0,
          "data": []
        },
        "status": "ACTIVE"
      }
    ]
  },
  "visibility": "PUBLIC",
  "description": "With hedonometer.org we’ve created an instrument that measures the happiness of large populations in real time.\r\nOur hedonometer is based on people’s online expressions, capitalizing on data-rich social media, and we’re measuring how people present themselves to the outside world. For our first version of hedonometer.org, we’re using Twitter as a source but in principle we can expand to any data source in any language",
  "groups": {
    "took": 40,
    "total": 0,
    "data": []
  },
  "creationDate": "Tue Aug 26 03:53:51 UTC 2014",
  "slugifiedPrimary": "v1",
  "haslogo": true,
  "current": true,
  "name": "v1",
  "links": {
    "models": {
      "total": 1,
      "href": "https://market.mashape.com/api/middleware/accounts/53fc04cde4b04b390f9b49a6/apis/53fc04cfe4b04b390f9b49a7/versions/53fc04cfe4b0954850fd0974/models/"
    },
    "astronode": {
      "href": "https://market.mashape.com/api/middleware/accounts/53fc04cde4b04b390f9b49a6/apis/53fc04cfe4b04b390f9b49a7/versions/53fc04cfe4b0954850fd0974/astronode"
    },
    "endpoints": {
      "total": 1,
      "href": "https://market.mashape.com/api/middleware/accounts/53fc04cde4b04b390f9b49a6/apis/53fc04cfe4b04b390f9b49a7/versions/53fc04cfe4b0954850fd0974/endpoints/"
    },
    "changelogs": {
      "total": 0,
      "href": "https://market.mashape.com/api/middleware/accounts/53fc04cde4b04b390f9b49a6/apis/53fc04cfe4b04b390f9b49a7/versions/53fc04cfe4b0954850fd0974/changelogs/"
    },
    "objects": {
      "total": 2,
      "href": "https://market.mashape.com/api/middleware/accounts/53fc04cde4b04b390f9b49a6/apis/53fc04cfe4b04b390f9b49a7/versions/53fc04cfe4b0954850fd0974/objects/"
    },
    "groups": {
      "total": 0,
      "href": "https://market.mashape.com/api/middleware/accounts/53fc04cde4b04b390f9b49a6/apis/53fc04cfe4b04b390f9b49a7/versions/53fc04cfe4b0954850fd0974/groups/"
    },
    "issues": {
      "total": 0,
      "href": "https://market.mashape.com/api/middleware/accounts/53fc04cde4b04b390f9b49a6/apis/53fc04cfe4b04b390f9b49a7/versions/53fc04cfe4b0954850fd0974/issues/"
    },
    "tags": {
      "total": 2,
      "href": "https://market.mashape.com/api/middleware/accounts/53fc04cde4b04b390f9b49a6/apis/53fc04cfe4b04b390f9b49a7/versions/53fc04cfe4b0954850fd0974/tags/"
    },
    "features": {
      "total": 0,
      "href": "https://market.mashape.com/api/middleware/accounts/53fc04cde4b04b390f9b49a6/apis/53fc04cfe4b04b390f9b49a7/versions/53fc04cfe4b0954850fd0974/features/"
    },
    "plans": {
      "total": 1,
      "href": "https://market.mashape.com/api/middleware/accounts/53fc04cde4b04b390f9b49a6/apis/53fc04cfe4b04b390f9b49a7/versions/53fc04cfe4b0954850fd0974/plans/"
    },
    "self": {
      "href": "https://market.mashape.com/api/middleware/accounts/53fc04cde4b04b390f9b49a6/apis/53fc04cfe4b04b390f9b49a7/versions/53fc04cfe4b0954850fd0974"
    },
    "tos": {
      "href": "https://market.mashape.com/api/middleware/accounts/53fc04cde4b04b390f9b49a6/apis/53fc04cfe4b04b390f9b49a7/versions/53fc04cfe4b0954850fd0974/tos"
    },
    "api": {
      "parent": true,
      "href": "https://market.mashape.com/api/middleware/accounts/53fc04cde4b04b390f9b49a6/apis/53fc04cfe4b04b390f9b49a7"
    },
    "wikis": {
      "total": 1,
      "href": "https://market.mashape.com/api/middleware/accounts/53fc04cde4b04b390f9b49a6/apis/53fc04cfe4b04b390f9b49a7/versions/53fc04cfe4b0954850fd0974/wikis/"
    },
    "errors": {
      "total": 0,
      "href": "https://market.mashape.com/api/middleware/accounts/53fc04cde4b04b390f9b49a6/apis/53fc04cfe4b04b390f9b49a7/versions/53fc04cfe4b0954850fd0974/errors/"
    }
  },
  "id": "53fc04cfe4b0954850fd0974",
  "status": "ACTIVE"
}